…
## rerun using a for loop

``` r
output = vector("list", length = 5000)

for (i in 1:5000) {
  output[[i]] = sim_regression(n = 30)
}

bind_rows(output)
```

    ## # A tibble: 5,000 x 2
    ##    beta0_hat beta1_hat
    ##        <dbl>     <dbl>
    ##  1      2.11      3.00
    ##  2      2.44      2.70
    ##  3      1.83      2.94
    ##  4      2.21      2.93
    ##  5      1.71      3.24
    ##  6      2.37      2.83
    ##  7      1.91      3.15
    ##  8      1.80      3.11
    ##  9      1.79      3.33
    ## 10      1.31      3.24
    ## # ... with 4,990 more rows
…
